{
    "KPlugin": {
        "Description": "Setup for Sending and Receiving Messages",
        "Description[ar]": "إعداد إرسال الرّسائل واستلامها",
        "Description[az]": "Məktubların göndərilməsi və alınmasını ayarlayın",
        "Description[bg]": "Настройки на изпращане и получаване на съобщения",
        "Description[ca@valencia]": "Configuració per a enviar i rebre missatges",
        "Description[ca]": "Configuració per a enviar i rebre missatges",
        "Description[cs]": "Nastavení odesílání a přijímání zpráv",
        "Description[de]": "Einstellungen zum Senden und Empfangen von Nachrichten",
        "Description[en_GB]": "Setup for Sending and Receiving Messages",
        "Description[eo]": "Agordo por Sendi kaj Ricevi Mesaĝojn",
        "Description[es]": "Configuración para enviar y recibir mensajes",
        "Description[eu]": "Mezuak bidali eta jasotzeko ezarpena",
        "Description[fi]": "Viestien lähetys- ja vastaanottoasetukset",
        "Description[fr]": "Configuration de l'envoi et de la réception de messages",
        "Description[gl]": "Configuración para enviar e recibir mensaxes",
        "Description[ia]": "Configuration pro inviar e reciper messages",
        "Description[id]": "Penyiapan untuk Pengiriman dan Penerimaan Pesan",
        "Description[it]": "Impostazioni per spedire e ricevere messaggi",
        "Description[ka]": "შეტყობინებების გაგზავნისა და მიღების მორგება",
        "Description[ko]": "메시지 주고 받기 설정",
        "Description[nl]": "Instellingen voor het verzenden en ontvangen van berichten",
        "Description[pl]": "Ustawienia wysyłania i odbierania wiadomości",
        "Description[pt]": "Configuração de Envio e Recepção de Mensagens",
        "Description[pt_BR]": "Configura o envio e recebimento de mensagens",
        "Description[ru]": "Настройка отправки и получения писем",
        "Description[sl]": "Nastavitve za pošiljanje in prejemanje sporočil",
        "Description[sv]": "Inställningar för att skicka och ta emot brev",
        "Description[ta]": "அஞ்சல்களை அனுப்புவதற்கும் பெறுவதற்குமான அமைப்புகள்",
        "Description[tr]": "Gönderilen ve Gelen İletiler için Ayarlar",
        "Description[uk]": "Налаштування для надсилання і отримання повідомлень",
        "Description[x-test]": "xxSetup for Sending and Receiving Messagesxx",
        "Description[zh_CN]": "收发邮件设置",
        "Description[zh_TW]": "發送與接收信件的設定",
        "Icon": "network-workgroup",
        "Name": "Accounts",
        "Name[af]": "Rekeninge",
        "Name[ar]": "الحسابات",
        "Name[ast]": "Cuentes",
        "Name[az]": "Hesablar",
        "Name[be]": "Рахункі",
        "Name[bg]": "Акаунти",
        "Name[br]": "Kontoù",
        "Name[bs]": "Nalozi",
        "Name[ca@valencia]": "Comptes",
        "Name[ca]": "Comptes",
        "Name[cs]": "Účty",
        "Name[cy]": "Cyfrifon",
        "Name[da]": "Konti",
        "Name[de]": "Zugänge",
        "Name[el]": "Λογαριασμοί",
        "Name[en_GB]": "Accounts",
        "Name[eo]": "Kontoj",
        "Name[es]": "Cuentas",
        "Name[et]": "Kontod",
        "Name[eu]": "Kontuak",
        "Name[fa]": "حسابها",
        "Name[fi]": "Tilit",
        "Name[fr]": "Comptes",
        "Name[fy]": "Akkounts",
        "Name[ga]": "Cuntais",
        "Name[gl]": "Contas",
        "Name[he]": "חשבונות",
        "Name[hu]": "Postafiókok",
        "Name[ia]": "Contos",
        "Name[id]": "Akun",
        "Name[is]": "Tengingar",
        "Name[it]": "Account",
        "Name[ja]": "アカウント",
        "Name[ka]": "ანგარიშები",
        "Name[kk]": "Тіркелгілері",
        "Name[km]": "គណនី",
        "Name[ko]": "계정",
        "Name[lt]": "Paskyros",
        "Name[lv]": "Konti",
        "Name[mai]": "खाता",
        "Name[mk]": "Сметки",
        "Name[mr]": "खाते",
        "Name[ms]": "Akaun",
        "Name[nb]": "Kontoer",
        "Name[nds]": "Kontos",
        "Name[ne]": "खाता",
        "Name[nl]": "Accounts",
        "Name[nn]": "Kontoar",
        "Name[pa]": "ਅਕਾਊਂਟ",
        "Name[pl]": "Konta",
        "Name[pt]": "Contas",
        "Name[pt_BR]": "Contas",
        "Name[ro]": "Conturi",
        "Name[ru]": "Учётные записи",
        "Name[se]": "Kontut",
        "Name[sk]": "Účty",
        "Name[sl]": "Računi",
        "Name[sr@ijekavian]": "Налози",
        "Name[sr@ijekavianlatin]": "Nalozi",
        "Name[sr@latin]": "Nalozi",
        "Name[sr]": "Налози",
        "Name[sv]": "Konton",
        "Name[ta]": "கணக்குகள்",
        "Name[tg]": "Қайдҳои баҳисобгирӣ",
        "Name[th]": "บัญชีผู้ใช้",
        "Name[tr]": "Hesaplar",
        "Name[ug]": "ھېساباتلار",
        "Name[uk]": "Облікові записи",
        "Name[uz@cyrillic]": "Ҳисоблар",
        "Name[uz]": "Hisoblar",
        "Name[wa]": "Contes",
        "Name[x-test]": "xxAccountsxx",
        "Name[zh_CN]": "账户",
        "Name[zh_TW]": "帳號",
        "ServiceTypes": [
            "KCModule"
        ]
    },
    "X-DocPath": "kmail2/index.html#configure-accounts",
    "X-KDE-Weight": 200
}
